<div bgcolor="#f5f5f5">
<table width="100%" border="0" cellspacing="0" cellpadding="0" bgcolor="#f5f5f5">
  <tbody><tr>
    <td>

    <table align="center" bgcolor="#f5f5f5" cellpadding="0" cellspacing="0" border="0">
  <tbody><tr>
    <td width="640">
       <table width="100%" border="0" cellspacing="0" cellpadding="0" align="center">
  <tbody><tr>
    
  </tr>
</tbody></table> 
<table width="100%" border="0" cellspacing="0" cellpadding="0">
                 <tbody><tr>
                   <td width="120" align="center" valign="middle" style="padding-bottom:10px;padding-top:10px"><div align="center"><a href="http://www.ftstasks.com/quest" target="_blank"><img src="http://www.ftstasks.com/logo.png" width="120" height="45" border="0" alt="quest" style="display:block" class="CToWUd"></a></div></td>
                   <td width="520" valign="middle"><table border="0" cellspacing="0" cellpadding="0" width="100%">
                     <tbody><tr>
                       <td style="padding-left:5px;padding-right:5px" align="right"><font style="font-size:16px" face="Arial, sans-serif" color="#333333"><a href="tel:(480)%20463-8837" style="text-decoration:none" target="_blank"><font color="#333333">
                         Support: <u></u>
                           +263 4 782872
                         <u></u></font></a></font></td>
                     </tr>
                   </tbody></table></td>
                 </tr>
               </tbody></table>
               <table width="100%" border="0" cellspacing="0" cellpadding="0" bgcolor="#f5f5f5">
           <tbody><tr>
             <td bgcolor="#f5f5f5" height="10" style="line-height:10px"><div style="min-height:10px"><img src="https://ci3.googleusercontent.com/proxy/7VFdRF3Qv44s0kdxJpjScXMC1W9yJG01hpQ7URMV0pe1-alAc1ef52bRvtHJ4Au8R0hbiv6Z2hX52HbjoTCyLSQD8956h9pfZbiEKePF6g=s0-d-e1-ft#http://imagesak.secureserver.net/promos/std/spc_trans.gif" alt="" height="10" border="0" style="display:block" class="CToWUd"></div></td>
           </tr>
         </tbody></table>
<table border="0" width="100%" align="center" cellpadding="0" cellspacing="0" bgcolor="#FFFFFF">
          <tbody><tr>
            <td style="height:32px" valign="top" colspan="4"><div style="min-height:32px"><img src="https://ci6.googleusercontent.com/proxy/uNmCHuOdk7Ij3JWAUDAeCQmYq5y7dXR0fquq7DRCCzYr8mesErgXD-ZDMXKGKA8DR1hKpPkoRYJf14xOSM8fWpcTDfB_M38kAVfPK4NsQC4WdgbQyse1JR7LJDZQTUXL_ADueCJsWFZdxE8ZzUeOWQ=s0-d-e1-ft#http://imagesak.secureserver.net/promos/htmlemails/bbtemplate/01_bbemail2666_table_01b.jpg" width="640" height="32" style="display:block" border="0" class="CToWUd"></div></td>
          </tr>
          <tr bgcolor="#dedfde">
                <td width="30" valign="top"><div style="min-height:312px"><img src="https://ci6.googleusercontent.com/proxy/lqn8wcYegirG7Rv44KzTbFGhDdXwT1refn9WoGypsWccQ5MZBtiJD6KGxGgJsCXKJ91cA08TIHurTuTlmOimsj8QGDF-hUOHAE12wIMP1fXZf9oVGZ7slsL_FFPxd0qJWc9aUhCA2RTwaQeKFr5yLg=s0-d-e1-ft#http://imagesak.secureserver.net/promos/htmlemails/bbtemplate/01_bbemail2666_table_02b.jpg" width="30" height="312" style="display:block" border="0" class="CToWUd"></div></td>
                <td width="250" valign="middle">
        <table border="0" cellspacing="0" cellpadding="0" width="250">
                  <tbody>
				  
				  <tr>
				  
                    <td width="250" align="left"><font style="font-size:16px;line-height:20px" face="Arial, sans-serif" color="#333333">

                       Dear #USERNAME#.<br><br></font><font style="font-size:36px;line-height:40px" face="Arial, sans-serif" color="#333333">Remember upcoming event.<br><br></font>
<table width="100%" cellspacing="0" cellpadding="0" border="0">
               <tbody><tr>
                 <td align="center" bgcolor="#00a14b" style="color:#ffffff;display:block;padding-left:20px;padding-right:20px;padding-top:14px;padding-bottom:14px;border-bottom:4px solid #008a32"><a href="http://www.ftstasks.com/quest/index.php?page=calendar" style="color:#fffff6;font-size:18px;line-height:22px;text-decoration:none;width:100%;display:inline-block" target="_blank"><font color="#FFFFF6" face="Arial, sans-serif"><strong>View Calendar</strong></font></a></td>
               </tr>
             </tbody></table><br>
                   </td>
                  </tr>
                </tbody></table></td>
                <td width="53" valign="top"><div style="min-height:312px"><img src="https://ci6.googleusercontent.com/proxy/Al4vF4T7Js6jniLzvo5CAI38W_iOhtK_9kxU1GtKY7eAg5039iQfeqhKES_JvaVRdfJRCQKbBh2NdAW6283L3n1JYzmIRkuMWwBOvqLZlCX8wVZZzbwhzy0TU8T7Oit2sUUX1jB-rfoX-eqCilTiew=s0-d-e1-ft#http://imagesak.secureserver.net/promos/htmlemails/bbtemplate/01_bbemail2666_table_03b.jpg" width="53" height="312" style="display:block" border="0" class="CToWUd"></div></td>
                <td width="307" valign="top"><div style="min-height:312px"><img src="https://ci6.googleusercontent.com/proxy/m_IOeh7LTXI5Qg71iPafeeLWqwL9O2C9Fml_VGLY2hg4cPR6CkdXN53df-ixP-XE3dJjY1beXaeAMbJMAbbdwh3DfPUTcHvqKutGgm0lmQybwB-4pMvwnlSn98Hyb7U7w7XCHXk8er0NmIP4oo4dSQ=s0-d-e1-ft#http://imagesak.secureserver.net/promos/htmlemails/bbtemplate/01_bbemail2666_table_04c.jpg" width="307" height="312" style="display:block" border="0" class="CToWUd a6T" tabindex="0"><div class="a6S" dir="ltr" style="opacity: 0.01; left: 742.333374023438px; top: 399.111114501953px;"><div id=":3wb" class="T-I J-J5-Ji aQv T-I-ax7 L3 a5q" role="button" tabindex="0" aria-label="Download attachment " data-tooltip-class="a1V" data-tooltip="Download"><div class="aSK J-J5-Ji aYr"></div></div></div></div></td>
              </tr>
          <tr>
            <td valign="top" colspan="4"><div style="min-height:38px"><img src="https://ci5.googleusercontent.com/proxy/6uCBAz88Xa7pdRQtYDgpN7XF8OMUyVZ-mq78m4uBCRFsxX0tqM-BB52VBRy7UJ6sDQwclndhQU15j9eVQuka_kRr9oa67VJ2WnmItecDuKtEFjUTiskyMffNkGMsClEJV30FXcHyJD-QkfCJ_DCQAg=s0-d-e1-ft#http://imagesak.secureserver.net/promos/htmlemails/bbtemplate/01_bbemail2666_table_05d.jpg" width="640" height="38" style="display:block" border="0" class="CToWUd"></div></td>
          </tr>

        <tr>
          <td width="100%" valign="top" colspan="4" style="padding-top:15px;padding-bottom:10px;padding-left:30px;padding-right:30px"><font style="font-size:24px" face="Arial, sans-serif" color="#666666">#EVENTTITLE#</font></td>
        </tr>

       <tr>
    <td colspan="4">      
<table width="100%" border="0" cellspacing="0" bgcolor="#ffffff" align="center">
  <tbody><tr>
    <td width="29%" valign="top" style="padding-left:30px;padding-right:20px;padding-top:10px;padding-bottom:10px"><font style="font-size:14px" face="Arial, sans-serif" color="#999999">Starting:</font></td>
    <td width="71%" valign="top" style="padding-right:30px;padding-top:10px;padding-bottom:10px"><font style="font-size:14px" face="Arial, sans-serif" color="#666666">#STARTDATE#</a></font></td>
  </tr>
  <tr>
    <td valign="top" style="padding-left:30px;padding-right:20px;padding-top:10px;padding-bottom:10px"><font style="font-size:14px" face="Arial, sans-serif" color="#999999">Ending:</font></td>
    <td valign="top" style="padding-right:30px;padding-top:10px;padding-bottom:10px"><font style="font-size:14px" face="Arial, sans-serif" color="#666666">#ENDDATE#</font></td>
  </tr>
  <tr>
    <td valign="top" style="padding-left:30px;padding-right:20px;padding-top:10px;padding-bottom:10px"><font style="font-size:14px" face="Arial, sans-serif" color="#999999">Notes:</font></td>
    <td valign="top" style="padding-right:30px;padding-top:10px;padding-bottom:10px"><font style="font-size:14px" face="Arial, sans-serif" color="#666666">#DETAILS#</font></td>
  </tr>
  <tr>
   
  </tr>
</tbody></table>
</td>
</tr>

<tr>
<td colspan="4">
<table width="100%" border="0" cellspacing="0" bgcolor="#e5e5e5" align="center">
              <tbody><tr>
    <td colspan="2" valign="top" style="padding-left:30px;padding-right:30px;padding-top:25px;padding-bottom:5px"><font style="font-size:22px" face="Arial, sans-serif" color="#666666">Need Help?</font></td>
  </tr>

  <tr>
    <td width="20%" valign="top" style="padding-left:30px;padding-right:20px;padding-top:10px;padding-bottom:10px"><font style="font-size:14px" face="Arial, sans-serif" color="#666666">Call:</font></td>
    <td valign="top" style="padding-right:30px;padding-top:10px;padding-bottom:10px"><font style="font-size:14px" face="Arial, sans-serif" color="#666666"><a href="tel:%+2634%782869" value="+263772902572" target="_blank">+263 4 782869/72</a></font></td>
  
  </tr>
  <tr>
    <td valign="top" style="padding-left:30px;padding-right:20px;padding-top:10px;padding-bottom:30px"><font style="font-size:14px" face="Arial, sans-serif" color="#666666">Email:</font></td>
    <td valign="top" style="padding-right:30px;padding-top:10px;padding-bottom:30px"><font style="font-size:14px" face="Arial, sans-serif" color="#666666"><a href="mailto:support@ftstasks.com" target="_blank">support@ftstasks.com</a></font></td>
  </tr>
</tbody></table>
</td>
</tr>
</tbody></table>

<table width="100%" border="0" align="center" cellpadding="0" cellspacing="0">
  <tbody><tr>
    <td align="left" valign="middle" style="padding-right:20px"><br>
      <font color="#999999" style="font-size:10px" face="'HelveticaNeue-Regular', 'Helvetica Neue Regular', 'Helvetica Neue', Helvetica, Arial, sans-serif">
        Please do not reply to this email. Emails sent to this address will not be answered.<br><br>

        Copyright &copy; 2013-2015 <span class="il">Quest</span> Operating Company, Antedote. 1 Armagh Avenue, Eastlea, Harare, Zimbabwe. All rights reserved.</font></td>
        <td valign="bottom" align="right" style="padding-top:10px;padding-bottom:10px">
		</td>
    </tr>
</tbody></table></td>
</tr>
</tbody></table>


</td>
</tr>
</tbody></table>
</div>